%YAML 1.1
%TAG !u! tag:unity3d.com,2011:
--- !u!1001 &7422600320481564978
PrefabInstance:
  m_ObjectHideFlags: 0
  serializedVersion: 2
  m_Modification:
    m_TransformParent: {fileID: 0}
    m_Modifications:
    - target: {fileID: 5101276358119089861, guid: 0c6a659b87ef75242aae6098a7927cf1,
        type: 3}
      propertyPath: m_Name
      value: MP Slider
      objectReference: {fileID: 0}
    - target: {fileID: 7305928308154321684, guid: 0c6a659b87ef75242aae6098a7927cf1,
        type: 3}
      propertyPath: m_LocalPosition.x
      value: 0
      objectReference: {fileID: 0}
    - target: {fileID: 7305928308154321684, guid: 0c6a659b87ef75242aae6098a7927cf1,
        type: 3}
      propertyPath: m_LocalPosition.y
      value: 0
      objectReference: {fileID: 0}
    - target: {fileID: 7305928308154321684, guid: 0c6a659b87ef75242aae6098a7927cf1,
        type: 3}
      propertyPath: m_LocalPosition.z
      value: 0
      objectReference: {fileID: 0}
    - target: {fileID: 7305928308154321684, guid: 0c6a659b87ef75242aae6098a7927cf1,
        type: 3}
      propertyPath: m_LocalRotation.x
      value: -0
      objectReference: {fileID: 0}
    - target: {fileID: 7305928308154321684, guid: 0c6a659b87ef75242aae6098a7927cf1,
        type: 3}
      propertyPath: m_LocalRotation.y
      value: -0
      objectReference: {fileID: 0}
    - target: {fileID: 7305928308154321684, guid: 0c6a659b87ef75242aae6098a7927cf1,
        type: 3}
      propertyPath: m_LocalRotation.z
      value: -0
      objectReference: {fileID: 0}
    - target: {fileID: 7305928308154321684, guid: 0c6a659b87ef75242aae6098a7927cf1,
        type: 3}
      propertyPath: m_LocalRotation.w
      value: 1
      objectReference: {fileID: 0}
    - target: {fileID: 7305928308154321684, guid: 0c6a659b87ef75242aae6098a7927cf1,
        type: 3}
      propertyPath: m_RootOrder
      value: 0
      objectReference: {fileID: 0}
    - target: {fileID: 7305928308154321684, guid: 0c6a659b87ef75242aae6098a7927cf1,
        type: 3}
      propertyPath: m_LocalEulerAnglesHint.x
      value: 0
      objectReference: {fileID: 0}
    - target: {fileID: 7305928308154321684, guid: 0c6a659b87ef75242aae6098a7927cf1,
        type: 3}
      propertyPath: m_LocalEulerAnglesHint.y
      value: 0
      objectReference: {fileID: 0}
    - target: {fileID: 7305928308154321684, guid: 0c6a659b87ef75242aae6098a7927cf1,
        type: 3}
      propertyPath: m_LocalEulerAnglesHint.z
      value: 0
      objectReference: {fileID: 0}
    - target: {fileID: 7305928308154321684, guid: 0c6a659b87ef75242aae6098a7927cf1,
        type: 3}
      propertyPath: m_AnchoredPosition.x
      value: 0.000030518
      objectReference: {fileID: 0}
    - target: {fileID: 7305928308154321684, guid: 0c6a659b87ef75242aae6098a7927cf1,
        type: 3}
      propertyPath: m_AnchoredPosition.y
      value: 0
      objectReference: {fileID: 0}
    - target: {fileID: 7305928308154321684, guid: 0c6a659b87ef75242aae6098a7927cf1,
        type: 3}
      propertyPath: m_SizeDelta.x
      value: 0
      objectReference: {fileID: 0}
    - target: {fileID: 7305928308154321684, guid: 0c6a659b87ef75242aae6098a7927cf1,
        type: 3}
      propertyPath: m_SizeDelta.y
      value: -0.000015259
      objectReference: {fileID: 0}
    - target: {fileID: 7305928308154321684, guid: 0c6a659b87ef75242aae6098a7927cf1,
        type: 3}
      propertyPath: m_AnchorMin.x
      value: 0
      objectReference: {fileID: 0}
    - target: {fileID: 7305928308154321684, guid: 0c6a659b87ef75242aae6098a7927cf1,
        type: 3}
      propertyPath: m_AnchorMin.y
      value: 0
      objectReference: {fileID: 0}
    - target: {fileID: 7305928308154321684, guid: 0c6a659b87ef75242aae6098a7927cf1,
        type: 3}
      propertyPath: m_AnchorMax.x
      value: 1
      objectReference: {fileID: 0}
    - target: {fileID: 7305928308154321684, guid: 0c6a659b87ef75242aae6098a7927cf1,
        type: 3}
      propertyPath: m_AnchorMax.y
      value: 0.5
      objectReference: {fileID: 0}
    - target: {fileID: 7305928308154321684, guid: 0c6a659b87ef75242aae6098a7927cf1,
        type: 3}
      propertyPath: m_Pivot.x
      value: -0.00000011920929
      objectReference: {fileID: 0}
    - target: {fileID: 7305928308154321684, guid: 0c6a659b87ef75242aae6098a7927cf1,
        type: 3}
      propertyPath: m_Pivot.y
      value: 0.000000029802322
      objectReference: {fileID: 0}
    - target: {fileID: 7398189685210942220, guid: 0c6a659b87ef75242aae6098a7927cf1,
        type: 3}
      propertyPath: m_Direction
      value: 1
      objectReference: {fileID: 0}
    - target: {fileID: 8036079895413469057, guid: 0c6a659b87ef75242aae6098a7927cf1,
        type: 3}
      propertyPath: m_AnchoredPosition.y
      value: 0.000015258789
      objectReference: {fileID: 0}
    - target: {fileID: 8036079895413469057, guid: 0c6a659b87ef75242aae6098a7927cf1,
        type: 3}
      propertyPath: m_AnchoredPosition.x
      value: -4.770111
      objectReference: {fileID: 0}
    - target: {fileID: 8036079895413469057, guid: 0c6a659b87ef75242aae6098a7927cf1,
        type: 3}
      propertyPath: m_Pivot.x
      value: 1.0000015
      objectReference: {fileID: 0}
    - target: {fileID: 4458032156892759997, guid: 0c6a659b87ef75242aae6098a7927cf1,
        type: 3}
      propertyPath: m_Color.r
      value: 0.29803923
      objectReference: {fileID: 0}
    - target: {fileID: 4458032156892759997, guid: 0c6a659b87ef75242aae6098a7927cf1,
        type: 3}
      propertyPath: m_Color.g
      value: 0.34961167
      objectReference: {fileID: 0}
    - target: {fileID: 4458032156892759997, guid: 0c6a659b87ef75242aae6098a7927cf1,
        type: 3}
      propertyPath: m_Color.b
      value: 0.4509804
      objectReference: {fileID: 0}
    - target: {fileID: 1580524501344369351, guid: 0c6a659b87ef75242aae6098a7927cf1,
        type: 3}
      propertyPath: m_AnchoredPosition.y
      value: -0.14000225
      objectReference: {fileID: 0}
    - target: {fileID: 1580524501344369351, guid: 0c6a659b87ef75242aae6098a7927cf1,
        type: 3}
      propertyPath: m_AnchoredPosition.x
      value: 0.44000244
      objectReference: {fileID: 0}
    - target: {fileID: 7262181351471732138, guid: 0c6a659b87ef75242aae6098a7927cf1,
        type: 3}
      propertyPath: m_AnchorMax.x
      value: 0
      objectReference: {fileID: 0}
    - target: {fileID: 7262181351471732138, guid: 0c6a659b87ef75242aae6098a7927cf1,
        type: 3}
      propertyPath: m_AnchorMax.y
      value: 0
      objectReference: {fileID: 0}
    - target: {fileID: 7262181351471732138, guid: 0c6a659b87ef75242aae6098a7927cf1,
        type: 3}
      propertyPath: m_Pivot.x
      value: 1.0000015
      objectReference: {fileID: 0}
    - target: {fileID: 7262181351471732138, guid: 0c6a659b87ef75242aae6098a7927cf1,
        type: 3}
      propertyPath: m_AnchorMin.x
      value: 0
      objectReference: {fileID: 0}
    - target: {fileID: 2073813132588671289, guid: 0c6a659b87ef75242aae6098a7927cf1,
        type: 3}
      propertyPath: m_Color.r
      value: 0.33333337
      objectReference: {fileID: 0}
    - target: {fileID: 2073813132588671289, guid: 0c6a659b87ef75242aae6098a7927cf1,
        type: 3}
      propertyPath: m_Color.g
      value: 0.6135086
      objectReference: {fileID: 0}
    - target: {fileID: 2073813132588671289, guid: 0c6a659b87ef75242aae6098a7927cf1,
        type: 3}
      propertyPath: m_Color.b
      value: 1
      objectReference: {fileID: 0}
    m_RemovedComponents: []
  m_SourcePrefab: {fileID: 100100000, guid: 0c6a659b87ef75242aae6098a7927cf1, type: 3}
