%YAML 1.1
%TAG !u! tag:unity3d.com,2011:
--- !u!114 &11400000
MonoBehaviour:
  m_ObjectHideFlags: 0
  m_PrefabParentObject: {fileID: 0}
  m_PrefabInternal: {fileID: 0}
  m_GameObject: {fileID: 0}
  m_Enabled: 1
  m_EditorHideFlags: 0
  m_Script: {fileID: 11500000, guid: 3839d6025f5bd4a4295884083f1dccc4, type: 3}
  m_Name: Great Potion
  m_EditorClassIdentifier: 
  displayName: Hi Potion
  cost: 10
  stack: 5
  hpFactor: 80
  spFactor: 0
  statusHeal: 0
