%YAML 1.1
%TAG !u! tag:unity3d.com,2011:
--- !u!114 &11400000
MonoBehaviour:
  m_ObjectHideFlags: 0
  m_CorrespondingSourceObject: {fileID: 0}
  m_PrefabInstance: {fileID: 0}
  m_PrefabAsset: {fileID: 0}
  m_GameObject: {fileID: 0}
  m_Enabled: 1
  m_EditorHideFlags: 0
  m_Script: {fileID: 11500000, guid: d1043fa00cdc9904e98a2bc3ffdf7b70, type: 3}
  m_Name: Kobold Weapon
  m_EditorClassIdentifier: 
  properName: Little Knife
  longDescription: 
  targetting:
    targetType: 0
    targetShape: 1
    range: 1
  settings:
    movePower: 0
    cost: 0
    dc: 10
  damage:
    dice:
      numDice: 1
      dice: 6
      bonus: 2
    damageType: {fileID: 11400000, guid: 29cca16680f57d74f8285551e59f13c8, type: 2}
